1. Conn: 20, CPU:25, Mem: 26440 kb
2. Conn: 20, CPU:1, Mem: 26436 kb
3. Conn: 20, CPU:1, Mem: 26404 kb
4. Conn: 20, CPU:1, Mem: 26468 kb
5. Conn: 20, CPU:1, Mem: 26468 kb
6. Conn: 20, CPU:1, Mem: 26464 kb
7. Conn: 20, CPU:1, Mem: 26464 kb
8. Conn: 20, CPU:1, Mem: 26464 kb
9. Conn: 20, CPU:1, Mem: 26464 kb
10. Conn: 20, CPU:1, Mem: 26464 kb
UP
11. Conn: 220, CPU:4, Mem: 30832 kb
12. Conn: 220, CPU:3, Mem: 30840 kb
13. Conn: 220, CPU:3, Mem: 30840 kb
14. Conn: 220, CPU:3, Mem: 30840 kb
15. Conn: 220, CPU:3, Mem: 30840 kb
16. Conn: 220, CPU:3, Mem: 30840 kb
17. Conn: 220, CPU:3, Mem: 30840 kb
18. Conn: 220, CPU:3, Mem: 30840 kb
19. Conn: 220, CPU:3, Mem: 30840 kb
20. Conn: 220, CPU:3, Mem: 30840 kb
21. Conn: 220, CPU:3, Mem: 30840 kb
22. Conn: 220, CPU:3, Mem: 30840 kb
23. Conn: 220, CPU:3, Mem: 30840 kb
24. Conn: 220, CPU:3, Mem: 30840 kb
25. Conn: 220, CPU:3, Mem: 30840 kb
26. Conn: 220, CPU:3, Mem: 30808 kb
27. Conn: 220, CPU:3, Mem: 30808 kb
28. Conn: 220, CPU:3, Mem: 30808 kb
29. Conn: 220, CPU:3, Mem: 30808 kb
30. Conn: 220, CPU:3, Mem: 30808 kb
31. Conn: 220, CPU:3, Mem: 30776 kb
32. Conn: 220, CPU:3, Mem: 30776 kb
33. Conn: 220, CPU:3, Mem: 30776 kb
34. Conn: 220, CPU:3, Mem: 30808 kb
35. Conn: 220, CPU:3, Mem: 30808 kb
36. Conn: 220, CPU:3, Mem: 30808 kb
37. Conn: 220, CPU:3, Mem: 30776 kb
38. Conn: 220, CPU:3, Mem: 30776 kb
39. Conn: 220, CPU:3, Mem: 30808 kb
40. Conn: 220, CPU:3, Mem: 30808 kb
1 K
41. Conn: 420, CPU:8, Mem: 30508 kb
42. Conn: 420, CPU:7, Mem: 30836 kb
43. Conn: 420, CPU:6, Mem: 31320 kb
44. Conn: 420, CPU:4, Mem: 30712 kb
45. Conn: 420, CPU:8, Mem: 30672 kb
46. Conn: 420, CPU:7, Mem: 30984 kb
47. Conn: 420, CPU:6, Mem: 31556 kb
48. Conn: 420, CPU:8, Mem: 30884 kb
49. Conn: 420, CPU:5, Mem: 31076 kb
50. Conn: 420, CPU:9, Mem: 31492 kb
0k
51. Conn: 420, CPU:8, Mem: 31108 kb
52. Conn: 420, CPU:5, Mem: 31204 kb
53. Conn: 420, CPU:4, Mem: 31332 kb
54. Conn: 420, CPU:4, Mem: 30980 kb
55. Conn: 420, CPU:4, Mem: 30724 kb
56. Conn: 420, CPU:4, Mem: 30628 kb
57. Conn: 420, CPU:4, Mem: 30628 kb
58. Conn: 420, CPU:4, Mem: 30628 kb
59. Conn: 420, CPU:4, Mem: 30628 kb
60. Conn: 420, CPU:4, Mem: 30596 kb
61. Conn: 420, CPU:4, Mem: 30628 kb
62. Conn: 420, CPU:4, Mem: 30628 kb
63. Conn: 420, CPU:4, Mem: 30628 kb
64. Conn: 420, CPU:4, Mem: 30628 kb
65. Conn: 420, CPU:4, Mem: 30660 kb
66. Conn: 420, CPU:4, Mem: 30660 kb
67. Conn: 420, CPU:4, Mem: 30660 kb
68. Conn: 420, CPU:4, Mem: 30660 kb
69. Conn: 420, CPU:4, Mem: 30660 kb
70. Conn: 420, CPU:4, Mem: 30660 kb
10k
71. Conn: 420, CPU:8, Mem: 31780 kb
72. Conn: 420, CPU:10, Mem: 32696 kb
73. Conn: 420, CPU:11, Mem: 33604 kb
74. Conn: 420, CPU:11, Mem: 33696 kb
75. Conn: 420, CPU:10, Mem: 32992 kb
76. Conn: 420, CPU:10, Mem: 33696 kb
77. Conn: 420, CPU:11, Mem: 33272 kb
78. Conn: 420, CPU:9, Mem: 32488 kb
79. Conn: 420, CPU:11, Mem: 33064 kb
80. Conn: 420, CPU:9, Mem: 34180 kb
81. Conn: 420, CPU:11, Mem: 34208 kb
82. Conn: 420, CPU:11, Mem: 33312 kb
83. Conn: 420, CPU:12, Mem: 33824 kb
84. Conn: 420, CPU:10, Mem: 33920 kb
85. Conn: 420, CPU:10, Mem: 33952 kb
86. Conn: 420, CPU:10, Mem: 33912 kb
87. Conn: 420, CPU:12, Mem: 34008 kb
88. Conn: 420, CPU:12, Mem: 33628 kb
89. Conn: 420, CPU:12, Mem: 33276 kb
90. Conn: 420, CPU:10, Mem: 33688 kb
0K
91. Conn: 420, CPU:11, Mem: 33752 kb
92. Conn: 420, CPU:8, Mem: 33224 kb
93. Conn: 420, CPU:4, Mem: 33128 kb
94. Conn: 420, CPU:4, Mem: 32232 kb
95. Conn: 420, CPU:4, Mem: 31528 kb
96. Conn: 420, CPU:4, Mem: 31592 kb
97. Conn: 420, CPU:4, Mem: 31624 kb
98. Conn: 420, CPU:4, Mem: 31624 kb
99. Conn: 420, CPU:4, Mem: 31624 kb
100. Conn: 420, CPU:4, Mem: 31648 kb
down
101. Conn: 20, CPU:3, Mem: 27308 kb
102. Conn: 20, CPU:1, Mem: 27308 kb
103. Conn: 20, CPU:1, Mem: 27308 kb
104. Conn: 20, CPU:1, Mem: 27308 kb
105. Conn: 20, CPU:1, Mem: 27292 kb
106. Conn: 20, CPU:1, Mem: 27292 kb
107. Conn: 20, CPU:1, Mem: 27292 kb 
